{
  "$schema": "../../node_modules/nx/schemas/project-schema.json",
  "sourceRoot": "apps/dolar-e2e/src",
  "projectType": "application",
  "targets": {
    "e2e": {
      "executor": "@nrwl/cypress:cypress",
      "options": {
        "cypressConfig": "apps/dolar-e2e/cypress.json",
        "devServerTarget": "dolar:serve:development"
      },
      "configurations": {
        "production": {
          "devServerTarget": "dolar:serve:production"
        }
      }
    },
    "lint": {
      "executor": "@nrwl/linter:eslint",
      "outputs": ["{options.outputFile}"],
      "options": {
        "lintFilePatterns": ["apps/dolar-e2e/**/*.{js,ts}"]
      }
    }
  },
  "tags": [],
  "implicitDependencies": ["dolar"]
}
